{
  "images" : [
    {
      "idiom" : "universal",
      "filename" : "Captura de pantalla 2019-09-25 a las 9.33.23.png",
      "scale" : "1x"
    },
    {
      "idiom" : "universal",
      "scale" : "2x"
    },
    {
      "idiom" : "universal",
      "scale" : "3x"
    }
  ],
  "info" : {
    "version" : 1,
    "author" : "xcode"
  }
}